Lab2 Part2-Text Analysis 101 Using R
…
Part 3. Basic Analysis of Textual Data

Let us get a count vector for protest description, like what are the most frequent words or bi-grams

tidy_data %>% 
  count(word, sort = TRUE) 

## # A tibble: 3,826 x 2
##    word              n
##    <chr>         <int>
##  1 demonstration  1356
##  2 included       1330
##  3 march           975
##  4 rally           839
##  5 outside         466
##  6 national        424
##  7 game            423
##  8 anthem          418
##  9 police          379
## 10 prior           379
## #  with 3,816 more rows
…
let us get bigram

 data %>%
  select(-protest_urls) %>% 
  unnest_tokens(bigram, protest_description,token = "ngrams", n = 2) %>%
  count(bigram,sort = TRUE)

## # A tibble: 11,401 x 2
##    bigram                 n
##    <chr>              <int>
##  1 for this            1333
##  2 no details          1333
##  3 this demonstration  1322
##  4 details included    1321
##  5 included for        1321
##  6 national anthem      400
##  7 prior to             379
##  8 during national      376
##  9 anthem prior         363
## 10 nfl game             235
## #  with 11,391 more rows
…
One measure of the importance of a word is its term frequency (tf). It captures the frequency of a word in a document. There are very frequent words in a document but may not be important; in English, some stopwords, like the, is, of, and, etc. So we need to remove them before analysis based on your research. But for other scholars that might be of their interest.

Another way is to look at a terms inverse document frequency (idf), which decreases the weight for commonly used words and increases the weight for words that are not used very much in a collection of documents.

This can be combined with term frequency to calculate a terms tf-idf (the two quantities multiplied together), the frequency of a term adjusted for how rarely it is used.

You can check text mining with R book here https://www.tidytextmining.com/tfidf.html#tfidf

tidy_words <- tidy_data %>%
  count(protest_id, word, sort = TRUE)

tidy_words

## # A tibble: 24,521 x 3
##    protest_id word        n
##         <dbl> <chr>   <int>
##  1       2414 march       4
##  2       1370 square      3
##  3       2767 city        3
##  4       4501 center      3
##  5       4753 workers     3
##  6         11 w           2
##  7        204 die         2
##  8        262 police      2
##  9        303 street      2
## 10        322 march       2
## #  with 24,511 more rows

The idea of tf-idf is to find the important words for the content of each document by decreasing the weight for commonly used words and increasing the weight for words that are not used very much in a collection or corpus of documents.

The bind_tf_idf function in the tidytext package takes a tidy text dataset as input with one row per token (term), per document. One column (word here) contains the terms/tokens, one column contains the documents (book in this case), and the last necessary column contains the counts, how many times each document contains each term.

tidy_words <- tidy_words %>%
  bind_tf_idf(word, protest_id, n)

tidy_words

## # A tibble: 24,521 x 6
##    protest_id word        n    tf   idf tf_idf
##         <dbl> <chr>   <int> <dbl> <dbl>  <dbl>
##  1       2414 march       4 0.222  1.58  0.351
##  2       1370 square      3 0.188  4.11  0.771
##  3       2767 city        3 0.188  2.88  0.540
##  4       4501 center      3 0.25   4.01  1.00 
##  5       4753 workers     3 0.231  4.13  0.953
##  6         11 w           2 0.182  3.70  0.674
##  7        204 die         2 0.286  3.93  1.12 
##  8        262 police      2 0.143  2.53  0.362
##  9        303 street      2 0.167  4.32  0.720
## 10        322 march       2 0.2    1.58  0.316
## #  with 24,511 more rows
…
