…
The `nest` command makes a tibble (aka "data frame") that has a column named
`data` that is, itself, a bunch of tibbles:
```r
data %>% nest(-bug_drug)

# A tibble: 72 x 2
#   bug_drug                  data
#   <fct>                     <list>
# 1 C. freundii.beta_lactam   <tibble [37 × 6]>
# 2 CoNS.beta_lactam          <tibble [42 × 6]>
# 3 E. cloacae.beta_lactam    <tibble [41 × 6]>
# 4 E. coli.beta_lactam       <tibble [44 × 6]>
# 5 E. faecalis.beta_lactam   <tibble [39 × 6]>
# 6 E. faecium.beta_lactam    <tibble [38 × 6]>
# 7 K. pneumoniae.beta_lactam <tibble [43 × 6]>
# 8 P. aeruginosa.beta_lactam <tibble [44 × 6]>
# 9 P. mirabilis.beta_lactam  <tibble [42 × 6]>
#10 S. aureus.beta_lactam     <tibble [43 × 6]>
# … with 62 more rows
```

For example, the first row, showing $\beta$-lactam resistance among *C.
freundii*, has a `data` fields that is a tibble with 37 rows and 6 columns:
```r
data %>% nest(-bug_drug) %>% pull(data) %>% first()

# A tibble: 37 x 6
#    state_id bug         drug        first_use repeat_use    res
#    <chr>    <chr>       <chr>           <dbl>      <dbl>  <dbl>
#  1 stateBFU C. freundii beta_lactam    0.106      0.0398 0.540
#  2 stateCCZ C. freundii beta_lactam    0.189      0.0885 0.483
#  3 stateCUX C. freundii beta_lactam    0.157      0.0705 0.2
#  4 stateCWD C. freundii beta_lactam    0.145      0.0609 0.17
#  5 stateCYL C. freundii beta_lactam    0.188      0.0837 0.509
#  6 stateELN C. freundii beta_lactam    0.0728     0.0260 0.0248
#  7 stateEPB C. freundii beta_lactam    0.177      0.0710 0.543
#  8 stateERZ C. freundii beta_lactam    0.144      0.0632 0.584
#  9 stateEVG C. freundii beta_lactam    0.137      0.0563 0
# 10 stateGKW C. freundii beta_lactam    0.162      0.0678 0.330
# … with 27 more rows
```
…
