…
Now I want to take this count data and "uncount" it,
so that each row represents one child:
```r
data <- count_data %>%
  mutate(death = map2(deaths, total, ~ c(rep(1, .x), rep(0, .y - .x)))) %>%
  select(malnourished, crypto, death) %>%
  unnest()

# # A tibble: 7,454 x 3
#    malnourished crypto death
#    <lgl>        <lgl>  <dbl>
#  1 TRUE         TRUE       1
#  2 TRUE         TRUE       1
#  3 TRUE         TRUE       1
#  4 TRUE         TRUE       1
#  5 TRUE         TRUE       1
#  6 TRUE         TRUE       1
#  7 TRUE         TRUE       1
#  8 TRUE         TRUE       1
#  9 TRUE         TRUE       1
# 10 TRUE         TRUE       1
# # … with 7,444 more rows
```
…
