…
## [1] "1_merged_2542393"
```

I’ll use this `service_id` to filter the trips later on.

Finding the stops of interest
=============================

The stops file has a lot of information and a lot of stops:

```r
stops

## # A tibble: 4,724 x 12
##    stop_lat wheelchair_boar… stop_code stop_lon stop_timezone stop_url
##       <dbl>            <dbl>     <dbl>    <dbl> <lgl>         <lgl>
##  1     39.3                0     10841    -76.5 NA            NA
##  2     39.3                0      3210    -76.6 NA            NA
##  3     39.5                0     11542    -76.2 NA            NA
##  4     39.5                0     11543    -76.2 NA            NA
##  5     39.5                0     11540    -76.2 NA            NA
##  6     39.5                0     11541    -76.2 NA            NA
##  7     38.5                0     11546    -76.5 NA            NA
##  8     38.9                0     11547    -77.0 NA            NA
##  9     39.6                0     11544    -76.1 NA            NA
## 10     39.3                0      4021    -76.6 NA            NA
## # … with 4,714 more rows, and 6 more variables: parent_station <lgl>,
## #   stop_desc <lgl>, stop_name <chr>, location_type <dbl>, stop_id <dbl>,
## #   zone_id <lgl>
```
…
Putting together the data
=========================

I now have everything I need to extract the relevant data from the stop
times table:

```r
stop_times

## # A tibble: 1,475,869 x 9
##    trip_id arrival_time departure_time stop_id stop_sequence stop_headsign
##      <dbl> <time>       <time>           <dbl>         <dbl> <lgl>
##  1 2482921 06:22:00     06:22:00         14135             1 NA
##  2 2482921 06:22:08     06:22:08         12558             2 NA
##  3 2482921 06:23:31     06:23:31          6564             3 NA
##  4 2482921 06:24:07     06:24:07          6566             4 NA
##  5 2482921 06:26:12     06:26:12         12687             5 NA
##  6 2482921 06:27:13     06:27:13         12727             6 NA
##  7 2482921 06:28:47     06:28:47         12073             7 NA
##  8 2482921 06:29:39     06:29:39           625             8 NA
##  9 2482921 06:30:30     06:30:30          6578             9 NA
## 10 2482921 06:34:00     06:34:00          2397            10 NA
## # … with 1,475,859 more rows, and 3 more variables: pickup_type <lgl>,
## #   drop_off_type <lgl>, shape_dist_traveled <dbl>
```

and the trips table:

```r
trips

## # A tibble: 30,990 x 10
##    block_id bikes_allowed route_id wheelchair_acce… direction_id trip_headsign
##    <chr>            <dbl>    <dbl>            <dbl>        <dbl> <chr>
##  1 b_389363             1    11650                1            0 51 DOWNTOWN
##  2 b_389624             1    11659                1            0 65 CCBC DUND…
##  3 b_389623             1    11659                1            0 65 CCBC DUND…
##  4 b_389623             1    11659                1            0 65 CCBC DUND…
##  5 b_389623             1    11659                1            0 65 CCBC DUND…
##  6 b_389507             1    11659                1            0 65 CCBC DUND…
##  7 b_389619             1    11659                1            0 65 CCBC DUND…
##  8 b_389624             1    11659                1            0 65 CCBC DUND…
##  9 b_389624             1    11659                1            0 65 CCBC DUND…
## 10 b_392132             1    12191                1            0 94 FORT McHE…
## # … with 30,980 more rows, and 4 more variables: shape_id <dbl>,
## #   service_id <chr>, trip_id <dbl>, trip_short_name <chr>
```
…
my_data
## # A tibble: 110 x 5
##    direction_id headsign   train     stop                          time
##           <dbl> <chr>      <chr>     <chr>                         <time>
##  1            0 WASHINGTON Train 505 PENN STATION MARC sb          05:10
##  2            0 WASHINGTON Train 505 UNION STATION MARC Washington 06:10
##  3            0 WASHINGTON Train 409 PENN STATION MARC sb          06:15
##  4            0 WASHINGTON Train 409 UNION STATION MARC Washington 07:10
##  5            0 WASHINGTON Train 525 PENN STATION MARC sb          09:18
##  6            0 WASHINGTON Train 525 UNION STATION MARC Washington 10:20
##  7            0 WASHINGTON Train 423 PENN STATION MARC sb          08:50
##  8            0 WASHINGTON Train 423 UNION STATION MARC Washington 09:51
##  9            0 WASHINGTON Train 401 PENN STATION MARC sb          04:10
## 10            0 WASHINGTON Train 401 UNION STATION MARC Washington 05:05
## # … with 100 more rows
```
…
And now I’m ready to show the southbound (direction ID `0`) from Penn to
Union:

```r
my_pretty_data %>%
    filter(direction_id == 0) %>%
    spread(stop, time) %>%
    arrange(Penn) %>%
    select(headsign, train, Penn, Union) %>%
    mutate_at(c("Penn", "Union"), ~ format(., "%H:%M %p"))

## # A tibble: 27 x 4
##    headsign   train Penn     Union
##    <chr>      <chr> <chr>    <chr>
##  1 WASHINGTON 401   04:10 AM 05:05 AM
##  2 WASHINGTON 403   04:40 AM 05:40 AM
##  3 WASHINGTON 505   05:10 AM 06:10 AM
##  4 WASHINGTON 407   05:40 AM 06:43 AM
##  5 WASHINGTON 409   06:15 AM 07:10 AM
##  6 WASHINGTON 511   06:30 AM 07:24 AM
##  7 WASHINGTON 413   06:40 AM 07:43 AM
##  8 WASHINGTON 415   06:55 AM 07:58 AM
##  9 WASHINGTON 517   07:25 AM 08:20 AM
## 10 WASHINGTON 419   07:45 AM 08:47 AM
## # … with 17 more rows
```
…
And now I can create the two tables, and have the order of the columns make
sense when you read from left to right:

```r
pretty_table(0, "Penn", "Union")

## # A tibble: 27 x 4
##    headsign   train Penn     Union
##    <chr>      <chr> <chr>    <chr>
##  1 WASHINGTON 401   04:10 AM 05:05 AM
##  2 WASHINGTON 403   04:40 AM 05:40 AM
##  3 WASHINGTON 505   05:10 AM 06:10 AM
##  4 WASHINGTON 407   05:40 AM 06:43 AM
##  5 WASHINGTON 409   06:15 AM 07:10 AM
##  6 WASHINGTON 511   06:30 AM 07:24 AM
##  7 WASHINGTON 413   06:40 AM 07:43 AM
##  8 WASHINGTON 415   06:55 AM 07:58 AM
##  9 WASHINGTON 517   07:25 AM 08:20 AM
## 10 WASHINGTON 419   07:45 AM 08:47 AM
## # … with 17 more rows

pretty_table(1, "Union", "Penn")

## # A tibble: 28 x 4
##    headsign          train Union    Penn
##    <chr>             <chr> <chr>    <chr>
##  1 BALTIMORE         400   05:25 AM 06:29 AM
##  2 PERRYVILLE        502   06:05 AM 07:03 AM
##  3 BALTIMORE EXPRESS 404   06:35 AM 07:25 AM
##  4 BALTIMORE EXPRESS 408   07:05 AM 07:49 AM
##  5 BALTIMORE         410   07:10 AM 08:10 AM
##  6 MARTIN AIRPORT    610   08:05 AM 09:00 AM
##  7 MARTIN AIRPORT    612   08:20 AM 09:18 AM
##  8 BALTIMORE         412   09:05 AM 09:59 AM
##  9 BALTIMORE         414   09:30 AM 10:30 AM
## 10 BALTIMORE         416   10:15 AM 11:20 AM
## # … with 18 more rows
```
…
